…
```r
deserts
```

```
## # A tibble: 34,786 x 13
##    record_id month   day  year plot_id species_id sex   hindfoot_length weight
##        <dbl> <dbl> <dbl> <dbl>   <dbl> <chr>      <chr>           <dbl>  <dbl>
##  1         1     7    16  1977       2 NL         M                  32     NA
##  2         2     7    16  1977       3 NL         M                  33     NA
##  3         3     7    16  1977       2 DM         F                  37     NA
##  4         4     7    16  1977       7 DM         M                  36     NA
##  5         5     7    16  1977       3 DM         M                  35     NA
##  6         6     7    16  1977       1 PF         M                  14     NA
##  7         7     7    16  1977       2 PE         F                  NA     NA
##  8         8     7    16  1977       1 DM         M                  37     NA
##  9         9     7    16  1977       1 DM         F                  34     NA
## 10        10     7    16  1977       6 PF         F                  20     NA
## # ... with 34,776 more rows, and 4 more variables: genus <chr>, species <chr>,
## #   taxa <chr>, plot_type <chr>
```
# Data is not tidy - observations do not have their own distinct rows

2. How many genera and species are represented in the data? What are the total number of observations? Which species is most/ least frequently sampled in the study?

```r
deserts %>%
  count(genus, species) %>% 
  arrange(desc(n))
```

```
## # A tibble: 48 x 3
##    genus           species          n
##    <chr>           <chr>        <int>
##  1 Dipodomys       merriami     10596
##  2 Chaetodipus     penicillatus  3123
##  3 Dipodomys       ordii         3027
##  4 Chaetodipus     baileyi       2891
##  5 Reithrodontomys megalotis     2609
##  6 Dipodomys       spectabilis   2504
##  7 Onychomys       torridus      2249
##  8 Perognathus     flavus        1597
##  9 Peromyscus      eremicus      1299
## 10 Neotoma         albigula      1252
## # ... with 38 more rows
```
…
9. Which two species have, on average, the highest weight? Once you have identified them, make a new column that is a ratio of `weight` to `hindfoot_length`. Make a plot that shows the range of this new ratio and fill by sex.

```r
deserts %>% 
  group_by(species) %>% 
  summarize(avg_weight = mean(weight, na.rm = T)) %>%
  arrange(desc(avg_weight))
```

```
## # A tibble: 40 x 2
##    species      avg_weight
##    <chr>             <dbl>
##  1 albigula          159. 
##  2 spectabilis       120. 
##  3 spilosoma          93.5
##  4 hispidus           65.6
##  5 fulviventer        58.9
##  6 ochrognathus       55.4
##  7 ordii              48.9
##  8 merriami           43.2
##  9 baileyi            31.7
## 10 leucogaster        31.6
## # ... with 30 more rows
```

```r
# albigula and spectabilis
```

```r
weight_and_hindfootlength <- deserts %>% 
  filter(species == 'albigula' | species == 'spectabilis') %>% 
  filter(weight != 'NA') %>% 
  mutate(weight_hindfootlength_ratio = weight/hindfoot_length)
weight_and_hindfootlength
```

```
## # A tibble: 3,496 x 14
##    record_id month   day  year plot_id species_id sex   hindfoot_length weight
##        <dbl> <dbl> <dbl> <dbl>   <dbl> <chr>      <chr>           <dbl>  <dbl>
##  1       357    11    12  1977       9 DS         F                  50    117
##  2       362    11    12  1977       1 DS         F                  51    121
##  3       367    11    12  1977      20 DS         M                  51    115
##  4       377    11    12  1977       9 DS         F                  48    120
##  5       381    11    13  1977      17 DS         F                  48    118
##  6       383    11    13  1977      11 DS         F                  52    126
##  7       385    11    13  1977      17 DS         M                  50    132
##  8       389    11    13  1977      14 DS         F                  NA    113
##  9       392    11    13  1977      11 DS         F                  53    122
## 10       394    11    13  1977       4 DS         F                  48    107
## # ... with 3,486 more rows, and 5 more variables: genus <chr>, species <chr>,
## #   taxa <chr>, plot_type <chr>, weight_hindfootlength_ratio <dbl>
```
…
