Lab 9 Homework
…
colleges

## # A tibble: 341 x 10
##    INSTNM CITY  STABBR ZIP   ADM_RATE SAT_AVG PCIP26 COSTT4_A C150_4_POOLED
##    <chr>  <chr> <chr>  <chr>    <dbl>   <dbl>  <dbl>    <dbl>         <dbl>
##  1 Gross El C CA     9202       NA      NA 0.0016     7956        NA    
##  2 Colle Visa CA     9327       NA      NA 0.0066     8109        NA    
##  3 Colle San  CA     9440       NA      NA 0.0038     8278        NA    
##  4 Ventu Vent CA     9300       NA      NA 0.0035     8407        NA    
##  5 Oxnar Oxna CA     9303       NA      NA 0.0085     8516        NA    
##  6 Moorp Moor CA     9302       NA      NA 0.0151     8577        NA    
##  7 Skyli San  CA     9406       NA      NA 0          8580         0.233
##  8 Glend Glen CA     9120       NA      NA 0.002      9181        NA    
##  9 Citru Glen CA     9174       NA      NA 0.0021     9281        NA    
## 10 Fresn Fres CA     93741       NA      NA 0.0324     9370        NA    
## #  with 331 more rows, and 1 more variable: PFTFTUG1_EF <dbl>
…
## # A tibble: 1 x 10
##   INSTNM  CITY STABBR   ZIP ADM_RATE SAT_AVG PCIP26 COSTT4_A C150_4_POOLED
##    <int> <int>  <int> <int>    <int>   <int>  <int>    <int>         <int>
## 1      0     0      0     0      240     276     35      124           221
## #  with 1 more variable: PFTFTUG1_EF <int>

colleges <- clean_names(colleges)

Which cities in California have the highest number of colleges?

colleges %>%
  count(stabbr, city, sort = T ) 

## # A tibble: 161 x 3
##    stabbr city              n
##    <chr>  <chr>         <int>
##  1 CA     Los Angeles      24
##  2 CA     San Diego        18
##  3 CA     San Francisco    15
##  4 CA     Sacramento       10
##  5 CA     Berkeley          9
##  6 CA     Oakland           9
##  7 CA     Claremont         7
##  8 CA     Pasadena          6
##  9 CA     Fresno            5
## 10 CA     Irvine            5
## #  with 151 more rows
…
The column COSTT4_A is the annual cost of each institution. Which city has the highest average cost? Where is it located?

colleges %>%
  group_by(stabbr, city) %>%
  summarize(avg_cost = mean(costt4_a, na.rm = T), .groups = 'keep') %>%
  arrange(desc(avg_cost))

## # A tibble: 161 x 3
## # Groups:   stabbr, city [161]
##    stabbr city                avg_cost
##    <chr>  <chr>                  <dbl>
##  1 CA     Claremont              66498
##  2 CA     Malibu                 66152
##  3 CA     Valencia               64686
##  4 CA     Orange                 64501
##  5 CA     Redlands               61542
##  6 CA     Moraga                 61095
##  7 CA     Atherton               56035
##  8 CA     Thousand Oaks          54373
##  9 CA     Rancho Palos Verdes    50758
## 10 CA     La Verne               50603
## #  with 151 more rows
…
