…
2. Notice that we have some neutral superheros! Who are they?

```r
filter(superhero_info_renamed, alignment == "neutral",)
```

```
## # A tibble: 24 x 10
##    name  gender eyecolor race  haircolor height publisher skincolor alignment
##    <chr> <chr>  <chr>    <chr> <chr>      <dbl> <chr>     <chr>     <chr>    
##  1 Biza… Male   black    Biza… Black        191 DC Comics white     neutral  
##  2 Blac… Male   <NA>     God … <NA>          NA DC Comics <NA>      neutral  
##  3 Capt… Male   brown    Human Brown         NA DC Comics <NA>      neutral  
##  4 Copy… Female red      Muta… White        183 Marvel C… blue      neutral  
##  5 Dead… Male   brown    Muta… No Hair      188 Marvel C… <NA>      neutral  
##  6 Deat… Male   blue     Human White        193 DC Comics <NA>      neutral  
##  7 Etri… Male   red      Demon No Hair      193 DC Comics yellow    neutral  
##  8 Gala… Male   black    Cosm… Black        876 Marvel C… <NA>      neutral  
##  9 Glad… Male   blue     Stro… Blue         198 Marvel C… purple    neutral  
## 10 Indi… Female <NA>     Alien Purple        NA DC Comics <NA>      neutral  
## # … with 14 more rows, and 1 more variable: weight <dbl>
```

## `superhero_info`
3. Let's say we are only interested in the variables name, alignment, and "race". How would you isolate these variables from `superhero_info`?

```r
select(superhero_info_renamed, name, alignment, race)
```

```
## # A tibble: 734 x 3
##    name          alignment race             
##    <chr>         <chr>     <chr>            
##  1 A-Bomb        good      Human            
##  2 Abe Sapien    good      Icthyo Sapien    
##  3 Abin Sur      good      Ungaran          
##  4 Abomination   bad       Human / Radiation
##  5 Abraxas       bad       Cosmic Entity    
##  6 Absorbing Man bad       Human            
##  7 Adam Monroe   good      <NA>             
##  8 Adam Strange  good      Human            
##  9 Agent 13      good      <NA>             
## 10 Agent Bob     good      Human            
## # … with 724 more rows
```

## Not Human
4. List all of the superheros that are not human.

```r
stable <- select(superhero_info_renamed, name, alignment, race) 
  
filter(stable, race == "Human")
```

```
## # A tibble: 208 x 3
##    name              alignment race 
##    <chr>             <chr>     <chr>
##  1 A-Bomb            good      Human
##  2 Absorbing Man     bad       Human
##  3 Adam Strange      good      Human
##  4 Agent Bob         good      Human
##  5 Alex Mercer       bad       Human
##  6 Alfred Pennyworth good      Human
##  7 Ammo              bad       Human
##  8 Animal Man        good      Human
##  9 Ant-Man           good      Human
## 10 Ant-Man II        good      Human
## # … with 198 more rows
```
…
```r
#There are more bald good guys than bald bad guys.
```

10. Let's explore who the really "big" superheros are. In the `superhero_info` data, which have a height over 200 or weight over 300?

```r
filter(superhero_info_renamed, height > 200 | weight > 300)
```

```
## # A tibble: 65 x 10
##    name  gender eyecolor race  haircolor height publisher skincolor alignment
##    <chr> <chr>  <chr>    <chr> <chr>      <dbl> <chr>     <chr>     <chr>    
##  1 A-Bo… Male   yellow   Human No Hair      203 Marvel C… <NA>      good     
##  2 Abom… Male   green    Huma… No Hair      203 Marvel C… <NA>      bad      
##  3 Alien Male   <NA>     Xeno… No Hair      244 Dark Hor… black     bad      
##  4 Amazo Male   red      Andr… <NA>         257 DC Comics <NA>      bad      
##  5 Ant-… Male   blue     Human Blond        211 Marvel C… <NA>      good     
##  6 Anti… Male   blue     Symb… Blond        229 Marvel C… <NA>      <NA>     
##  7 Apoc… Male   red      Muta… Black        213 Marvel C… grey      bad      
##  8 Bane  Male   <NA>     Human <NA>         203 DC Comics <NA>      bad      
##  9 Beta… Male   <NA>     <NA>  No Hair      201 Marvel C… <NA>      good     
## 10 Bloo… Female blue     Human Brown        218 Marvel C… <NA>      bad      
## # … with 55 more rows, and 1 more variable: weight <dbl>
```

11. Just to be clear on the `|` operator,  have a look at the superheros over 300 in height...

```r
filter(superhero_info_renamed, weight > 300 | height > 300)
```

```
## # A tibble: 32 x 10
##    name  gender eyecolor race  haircolor height publisher skincolor alignment
##    <chr> <chr>  <chr>    <chr> <chr>      <dbl> <chr>     <chr>     <chr>    
##  1 A-Bo… Male   yellow   Human No Hair      203 Marvel C… <NA>      good     
##  2 Abom… Male   green    Huma… No Hair      203 Marvel C… <NA>      bad      
##  3 Anti… Male   blue     Symb… Blond        229 Marvel C… <NA>      <NA>     
##  4 Bloo… Female blue     Human Brown        218 Marvel C… <NA>      bad      
##  5 Dark… Male   red      New … No Hair      267 DC Comics grey      bad      
##  6 Dest… Male   <NA>     <NA>  <NA>         188 Marvel C… <NA>      bad      
##  7 Doom… Male   red      Alien White        244 DC Comics <NA>      bad      
##  8 Drax… Male   red      Huma… No Hair      193 Marvel C… green     good     
##  9 Fin … Male   red      Kaka… No Hair      975 Marvel C… green     good     
## 10 Gala… Male   black    Cosm… Black        876 Marvel C… <NA>      neutral  
## # … with 22 more rows, and 1 more variable: weight <dbl>
```
…
```r
#We have more than 16 rows in question #10 because the filter function looks for either weight > 300 OR height > 200. If a value fulfills either criteria it is included.
```

## Height to Weight Ratio
13. It's easy to be strong when you are heavy and tall, but who is heavy and short? Which superheros have the highest height to weight ratio?

```r
hw <- select(superhero_info_renamed, weight, height)

arrange(hw)
```

```
## # A tibble: 734 x 2
##    weight height
##     <dbl>  <dbl>
##  1    441    203
##  2     65    191
##  3     90    185
##  4    441    203
##  5     NA     NA
##  6    122    193
##  7     NA     NA
##  8     88    185
##  9     61    173
## 10     81    178
## # … with 724 more rows
```
…
14. How many superheros have a combination of accelerated healing, durability, and super strength?

```r
filter(superhero_powers, accelerated_healing & durability & super_strength)
```

```
## # A tibble: 97 x 168
##    hero_names agility accelerated_hea… lantern_power_r… dimensional_awa…
##    <chr>      <lgl>   <lgl>            <lgl>            <lgl>           
##  1 A-Bomb     FALSE   TRUE             FALSE            FALSE           
##  2 Abe Sapien TRUE    TRUE             FALSE            FALSE           
##  3 Angel      TRUE    TRUE             FALSE            FALSE           
##  4 Anti-Moni… FALSE   TRUE             FALSE            TRUE            
##  5 Anti-Venom FALSE   TRUE             FALSE            FALSE           
##  6 Aquaman    TRUE    TRUE             FALSE            FALSE           
##  7 Arachne    TRUE    TRUE             FALSE            FALSE           
##  8 Archangel  TRUE    TRUE             FALSE            FALSE           
##  9 Ardina     TRUE    TRUE             FALSE            FALSE           
## 10 Ares       TRUE    TRUE             FALSE            FALSE           
## # … with 87 more rows, and 163 more variables: cold_resistance <lgl>,
## #   durability <lgl>, stealth <lgl>, energy_absorption <lgl>, flight <lgl>,
## #   danger_sense <lgl>, underwater_breathing <lgl>, marksmanship <lgl>,
## #   weapons_master <lgl>, power_augmentation <lgl>, animal_attributes <lgl>,
## #   longevity <lgl>, intelligence <lgl>, super_strength <lgl>,
## #   cryokinesis <lgl>, telepathy <lgl>, energy_armor <lgl>,
## #   energy_blasts <lgl>, duplication <lgl>, size_changing <lgl>,
## #   density_control <lgl>, stamina <lgl>, astral_travel <lgl>,
## #   audio_control <lgl>, dexterity <lgl>, omnitrix <lgl>, super_speed <lgl>,
…
## `kinesis`
15. We are only interested in the superheros that do some kind of "kinesis". How would we isolate them from the `superhero_powers` data?

```r
select(superhero_powers, contains("kinesis"))
```

```
## # A tibble: 667 x 9
##    cryokinesis electrokinesis telekinesis hyperkinesis hypnokinesis
##    <lgl>       <lgl>          <lgl>       <lgl>        <lgl>       
##  1 FALSE       FALSE          FALSE       FALSE        FALSE       
##  2 FALSE       FALSE          FALSE       FALSE        FALSE       
##  3 FALSE       FALSE          FALSE       FALSE        FALSE       
##  4 FALSE       FALSE          FALSE       FALSE        FALSE       
##  5 FALSE       FALSE          FALSE       FALSE        FALSE       
##  6 FALSE       FALSE          FALSE       FALSE        FALSE       
##  7 FALSE       FALSE          FALSE       FALSE        FALSE       
##  8 FALSE       FALSE          FALSE       FALSE        FALSE       
##  9 FALSE       FALSE          FALSE       FALSE        FALSE       
## 10 FALSE       FALSE          FALSE       FALSE        FALSE       
## # … with 657 more rows, and 4 more variables: thirstokinesis <lgl>,
## #   biokinesis <lgl>, terrakinesis <lgl>, vitakinesis <lgl>
```
…
