…
2. Use `janitor` to rename the columns and make them easier to use. As part of this cleaning step, change `country`, `isscaap_group_number`, `asfis_species_number`, and `fao_major_fishing_area` to data class factor. 

```r
janitor::clean_names(fisheries)
```

```
## # A tibble: 17,692 x 71
##    country common_name isscaap_group_n… isscaap_taxonom… asfis_species_n…
##    <chr>   <chr>                  <dbl> <chr>            <chr>           
##  1 Albania Angelshark…               38 Sharks, rays, c… 10903XXXXX      
##  2 Albania Atlantic b…               36 Tunas, bonitos,… 1750100101      
##  3 Albania Barracudas…               37 Miscellaneous p… 17710001XX      
##  4 Albania Blue and r…               45 Shrimps, prawns  2280203101      
##  5 Albania Blue whiti…               32 Cods, hakes, ha… 1480403301      
##  6 Albania Bluefish                  37 Miscellaneous p… 1702021301      
##  7 Albania Bogue                     33 Miscellaneous c… 1703926101      
##  8 Albania Caramote p…               45 Shrimps, prawns  2280100117      
##  9 Albania Catsharks,…               38 Sharks, rays, c… 10801003XX      
## 10 Albania Common cut…               57 Squids, cuttlef… 3210200202      
## # … with 17,682 more rows, and 66 more variables: asfis_species_name <chr>,
## #   fao_major_fishing_area <dbl>, measure <chr>, x1950 <chr>, x1951 <chr>,
## #   x1952 <chr>, x1953 <chr>, x1954 <chr>, x1955 <chr>, x1956 <chr>,
## #   x1957 <chr>, x1958 <chr>, x1959 <chr>, x1960 <chr>, x1961 <chr>,
## #   x1962 <chr>, x1963 <chr>, x1964 <chr>, x1965 <chr>, x1966 <chr>,
## #   x1967 <chr>, x1968 <chr>, x1969 <chr>, x1970 <chr>, x1971 <chr>,
## #   x1972 <chr>, x1973 <chr>, x1974 <chr>, x1975 <chr>, x1976 <chr>,
## #   x1977 <chr>, x1978 <chr>, x1979 <chr>, x1980 <chr>, x1981 <chr>,
## #   x1982 <chr>, x1983 <chr>, x1984 <chr>, x1985 <chr>, x1986 <chr>,
…
