…
```r
amniota
```

```
## # A tibble: 21,322 x 36
##    class order   family  genus  species subspecies common_name  female_maturity~
##    <chr> <chr>   <chr>   <chr>  <chr>        <dbl> <chr>                   <dbl>
##  1 Aves  Accipi~ Accipi~ Accip~ albogu~       -999 Pied Goshawk            -999 
##  2 Aves  Accipi~ Accipi~ Accip~ badius        -999 Shikra                   363.
##  3 Aves  Accipi~ Accipi~ Accip~ bicolor       -999 Bicolored H~            -999 
##  4 Aves  Accipi~ Accipi~ Accip~ brachy~       -999 New Britain~            -999 
##  5 Aves  Accipi~ Accipi~ Accip~ brevip~       -999 Levant Spar~             363.
##  6 Aves  Accipi~ Accipi~ Accip~ castan~       -999 Chestnut-fl~            -999 
##  7 Aves  Accipi~ Accipi~ Accip~ chilen~       -999 Chilean Hawk            -999 
##  8 Aves  Accipi~ Accipi~ Accip~ chiono~       -999 White-breas~             548.
##  9 Aves  Accipi~ Accipi~ Accip~ cirroc~       -999 Collared Sp~            -999 
## 10 Aves  Accipi~ Accipi~ Accip~ cooper~       -999 Cooper's Ha~             730 
## # ... with 21,312 more rows, and 28 more variables:
## #   litter_or_clutch_size_n <dbl>, litters_or_clutches_per_y <dbl>,
## #   adult_body_mass_g <dbl>, maximum_longevity_y <dbl>, gestation_d <dbl>,
## #   weaning_d <dbl>, birth_or_hatching_weight_g <dbl>, weaning_weight_g <dbl>,
## #   egg_mass_g <dbl>, incubation_d <dbl>, fledging_age_d <dbl>,
## #   longevity_y <dbl>, male_maturity_d <dbl>,
## #   inter_litter_or_interbirth_interval_y <dbl>, female_body_mass_g <dbl>,
## #   male_body_mass_g <dbl>, no_sex_body_mass_g <dbl>, egg_width_mm <dbl>,
## #   egg_length_mm <dbl>, fledging_mass_g <dbl>, adult_svl_cm <dbl>,
…
```r
amphibio
```

```
## # A tibble: 6,776 x 38
##    id    Order Family Genus Species   Fos   Ter   Aqu   Arb Leaves Flowers Seeds
##    <chr> <chr> <chr>  <chr> <chr>   <dbl> <dbl> <dbl> <dbl>  <dbl>   <dbl> <lgl>
##  1 Anf0~ Anura Allop~ Allo~ Alloph~    NA     1     1     1     NA      NA NA   
##  2 Anf0~ Anura Alyti~ Alyt~ Alytes~    NA     1     1     1     NA      NA NA   
##  3 Anf0~ Anura Alyti~ Alyt~ Alytes~    NA     1     1     1     NA      NA NA   
##  4 Anf0~ Anura Alyti~ Alyt~ Alytes~    NA     1     1     1     NA      NA NA   
##  5 Anf0~ Anura Alyti~ Alyt~ Alytes~    NA     1    NA     1     NA      NA NA   
##  6 Anf0~ Anura Alyti~ Alyt~ Alytes~     1     1     1     1     NA      NA NA   
##  7 Anf0~ Anura Alyti~ Disc~ Discog~     1     1     1    NA     NA      NA NA   
##  8 Anf0~ Anura Alyti~ Disc~ Discog~     1     1     1    NA     NA      NA NA   
##  9 Anf0~ Anura Alyti~ Disc~ Discog~     1     1     1    NA     NA      NA NA   
## 10 Anf0~ Anura Alyti~ Disc~ Discog~     1     1     1    NA     NA      NA NA   
## # ... with 6,766 more rows, and 26 more variables: Fruits <dbl>, Arthro <dbl>,
## #   Vert <dbl>, Diu <dbl>, Noc <dbl>, Crepu <dbl>, Wet_warm <dbl>,
## #   Wet_cold <dbl>, Dry_warm <dbl>, Dry_cold <dbl>, Body_mass_g <dbl>,
## #   Age_at_maturity_min_y <dbl>, Age_at_maturity_max_y <dbl>,
## #   Body_size_mm <dbl>, Size_at_maturity_min_mm <dbl>,
## #   Size_at_maturity_max_mm <dbl>, Longevity_max_y <dbl>,
## #   Litter_size_min_n <dbl>, Litter_size_max_n <dbl>,
## #   Reproductive_output_y <dbl>, Offspring_size_min_mm <dbl>,
## #   Offspring_size_max_mm <dbl>, Dir <dbl>, Lar <dbl>, Viv <dbl>, OBS <lgl>
```
…
```r
naniar::miss_var_summary(amniota)
```

```
## # A tibble: 36 x 3
##    variable                  n_miss pct_miss
##    <chr>                      <int>    <dbl>
##  1 class                          0        0
##  2 order                          0        0
##  3 family                         0        0
##  4 genus                          0        0
##  5 species                        0        0
##  6 subspecies                     0        0
##  7 common_name                    0        0
##  8 female_maturity_d              0        0
##  9 litter_or_clutch_size_n        0        0
## 10 litters_or_clutches_per_y      0        0
## # ... with 26 more rows
```
…
```r
naniar::miss_var_summary(amphibio)
```

```
## # A tibble: 38 x 3
##    variable n_miss pct_miss
##    <chr>     <int>    <dbl>
##  1 OBS        6776    100  
##  2 Fruits     6774    100. 
##  3 Flowers    6772     99.9
##  4 Seeds      6772     99.9
##  5 Leaves     6752     99.6
##  6 Dry_cold   6735     99.4
##  7 Vert       6657     98.2
##  8 Wet_cold   6625     97.8
##  9 Crepu      6608     97.5
## 10 Dry_warm   6572     97.0
## # ... with 28 more rows
```
…
```r
#This output is misleading. I believe it is because R cannot recognize NA values because they are represented by numeric values.
```


```r
amphibio %>%
  naniar::miss_var_summary()
```

```
## # A tibble: 38 x 3
##    variable n_miss pct_miss
##    <chr>     <int>    <dbl>
##  1 OBS        6776    100  
##  2 Fruits     6774    100. 
##  3 Flowers    6772     99.9
##  4 Seeds      6772     99.9
##  5 Leaves     6752     99.6
##  6 Dry_cold   6735     99.4
##  7 Vert       6657     98.2
##  8 Wet_cold   6625     97.8
##  9 Crepu      6608     97.5
## 10 Dry_warm   6572     97.0
## # ... with 28 more rows
```

**5. Make any necessary replacements in the data such that all NA's appear as "NA".**   

```r
amniota_tidy <- amniota %>%
  na_if('-999') %>%
  na_if('-30259.')
naniar::miss_var_summary(amniota_tidy)
```

```
## # A tibble: 36 x 3
##    variable                       n_miss pct_miss
##    <chr>                           <int>    <dbl>
##  1 subspecies                      21322    100  
##  2 female_body_mass_at_maturity_g  21318    100. 
##  3 female_svl_at_maturity_cm       21120     99.1
##  4 fledging_mass_g                 21111     99.0
##  5 male_svl_cm                     21040     98.7
##  6 no_sex_maturity_d               20860     97.8
##  7 egg_width_mm                    20727     97.2
##  8 egg_length_mm                   20702     97.1
##  9 weaning_weight_g                20258     95.0
## 10 female_svl_cm                   20242     94.9
## # ... with 26 more rows
```
…
**6. Use the package `naniar` to produce a summary, including percentages, of missing data in each column for the `amniota` data.**  

```r
naniar::miss_var_summary(amniota)
```

```
## # A tibble: 36 x 3
##    variable                  n_miss pct_miss
##    <chr>                      <int>    <dbl>
##  1 class                          0        0
##  2 order                          0        0
##  3 family                         0        0
##  4 genus                          0        0
##  5 species                        0        0
##  6 subspecies                     0        0
##  7 common_name                    0        0
##  8 female_maturity_d              0        0
##  9 litter_or_clutch_size_n        0        0
## 10 litters_or_clutches_per_y      0        0
## # ... with 26 more rows
```
</div>

**7. Use the package `naniar` to produce a summary, including percentages, of missing data in each column for the `amphibio` data.**

```r
naniar::miss_var_summary(amphibio)
```

```
## # A tibble: 38 x 3
##    variable n_miss pct_miss
##    <chr>     <int>    <dbl>
##  1 OBS        6776    100  
##  2 Fruits     6774    100. 
##  3 Flowers    6772     99.9
##  4 Seeds      6772     99.9
##  5 Leaves     6752     99.6
##  6 Dry_cold   6735     99.4
##  7 Vert       6657     98.2
##  8 Wet_cold   6625     97.8
##  9 Crepu      6608     97.5
## 10 Dry_warm   6572     97.0
## # ... with 28 more rows
```
…
