Midterm review and naniar()
…
janitor::clean_names(cites)

## # A tibble: 67,161 x 16
##     year app   taxon class order family genus importer exporter origin
##    <dbl> <chr> <chr> <chr> <chr> <chr>  <chr> <chr>    <chr>    <chr> 
##  1  2016 I     Aqui Aves  Falc Accip Aqui TR       NL       CZ    
##  2  2016 I     Aqui Aves  Falc Accip Aqui XV       RS       RS    
##  3  2016 I     Hali Aves  Falc Accip Hali BE       NO       <NA>  
##  4  2016 I     Hali Aves  Falc Accip Hali BE       NO       <NA>  
##  5  2016 I     Hali Aves  Falc Accip Hali DK       IS       <NA>  
##  6  2016 I     Hali Aves  Falc Accip Hali XV       RS       RS    
##  7  2016 I     Harp Aves  Falc Accip Harp BR       FR       <NA>  
##  8  2016 I     Harp Aves  Falc Accip Harp BR       FR       <NA>  
##  9  2016 I     Harp Aves  Falc Accip Harp BR       FR       <NA>  
## 10  2016 I     Acip Acti Acip Acipe Acip CH       DE       <NA>  
## #  with 67,151 more rows, and 6 more variables:
## #   importer_reported_quantity <dbl>, exporter_reported_quantity <dbl>,
## #   term <chr>, unit <chr>, purpose <chr>, source <chr>
…
Try using group_by() with naniar. Look specifically at class and exporter_reported_quantity. For which taxonomic classes do we have a high proportion of missing export data?

cites %>%
  group_by(`Exporter reported quantity`) %>%
  select(`Exporter reported quantity`, Class) %>%
  naniar::miss_var_summary(order = T)

## # A tibble: 5,378 x 4
## # Groups:   Exporter reported quantity [5,378]
##    `Exporter reported quantity` variable n_miss pct_miss
##                           <dbl> <chr>     <int>    <dbl>
##  1                          1   Class       727     11.7
##  2                         43   Class         9     12.9
##  3                         NA   Class      7002     30.3
##  4                         12   Class       236     35.6
##  5                          4   Class       333     19.5
##  6                          2   Class       573     15.2
##  7                          3   Class       406     22.4
##  8                         10   Class       574     39.9
##  9                          7.5 Class         2     15.4
## 10                          8   Class       231     29.2
## #  with 5,368 more rows
…
